{
    "file": "pflow-track-variables.json",
    "ints": [
        "truthOriginLabel",
        "truthVertexIndex",
        "SV1VertexIndex",
        "JFVertexIndex"
    ],
    "chars": [
        "leptonID"
    ],
    "halves": [
        "AMVFWeightPV"
    ]
}
