{
    "jet_collection": "tempJets",
    "calibration": {},
    "selection": {
        "minimum_jet_pt": 20000,
        "maximum_jet_absolute_eta": 2.5
    },
    "vertex_collection": "HLT_IDVertex_FS",
    "dl2_configs": [
        {
            "nn_file_path": "BTagging/20210729/dipsLoose/antikt4empflow/network.json"
        },
        {
            "nn_file_path": "BTagging/20210824r22/dl1dLoose/antikt4empflow/network.json"
        }
    ],
    "variables": {
        "btag": {
            "jet_int_variables": [
                "HadronConeExclTruthLabelID",
                "HadronConeExclExtendedTruthLabelID",
                "jetPtRank",
                "OfflineMatchedHadronConeExclTruthLabelID",
                "OfflineMatchedHadronConeExclExtendedTruthLabelID"
            ],
            "floats": [
                "pt_btagJes",
                "eta_btagJes",
                "DL1r_pu",
                "DL1r_pc",
                "DL1r_pb",
                "DL1dv00_pb",
                "DL1dv00_pc",
                "DL1dv00_pu",
                "deltaRToOfflineJet",
                "deltaPtToOfflineJet",
                "OfflineMatchedDL1r_pb",
                "OfflineMatchedDL1r_pc",
                "OfflineMatchedDL1r_pu"
            ]
        },
        "default_mapping": {
            "file": "fragments/default-mapping.json"
        }
    },
    "tracks": [],
    "truths": [
        {
            "file": "fragments/overlap-leptons.json"
        }
    ],
    "decorate": {
        "jet_aug": false,
        "btag_jes": true,
        "soft_muon": false,
        "track_truth_info": false,
        "track_sv_info": false,
        "track_lepton_id": false
    },
    "btagging_link": "btaggingLink"
}
